%YAML 1.1
%TAG !u! tag:unity3d.com,2011:
--- !u!1045 &1
EditorBuildSettings:
  m_ObjectHideFlags: 0
  serializedVersion: 2
  m_Scenes:
  - enabled: 0
    path: Assets/Scenes/Main Menu.unity
    guid: 00000000000000000000000000000000
  - enabled: 1
    path: Assets/Scenes/Breakout.unity
    guid: 8870b8c3b8817fd41856c154c17aac50
